{
	"kmer": { 
		"_all": { 
			"store": "false" ,
			"term_vector": "with_positions_offsets",
			"store_term_vectors" : "true", 
			"store_term_vector_offsets" : "true", 
			"store_term_vector_positions" : "true",
			"store_term_vector_payloads" : "true", 
			"indexAnalyzer": "standard", 
			"searchAnalyzer": "standard" }, 
		"properties": { 
			"content": { 
			"type": "string", 
			"store": "yes", 
			"term_vector": "with_positions_offsets_payloads", 
			"indexAnalyzer": "kmer", 
			"index" : "analyzed",
			"similarity" : "kmer_similarity" }
		 }
	}
}
